<svg width="35" height="35" viewBox="0 0 35 35" fill="none" xmlns="http://www.w3.org/2000/svg">
<path opacity="0.4" d="M16.7595 4.06738H11.3068C6.82241 4.06738 4.01074 7.24217 4.01074 11.7368V23.8613C4.01074 28.3559 6.80928 31.5307 11.3068 31.5307H24.1751C28.6741 31.5307 31.4726 28.3559 31.4726 23.8613V17.9872" stroke="#222222" stroke-linecap="round" stroke-linejoin="round"/>
<path fill-rule="evenodd" clip-rule="evenodd" d="M12.8737 15.9263L23.7718 5.02817C25.1295 3.67192 27.3301 3.67192 28.6878 5.02817L30.4626 6.80297C31.8203 8.16067 31.8203 10.3628 30.4626 11.719L19.512 22.6696C18.9185 23.2632 18.1135 23.5971 17.2735 23.5971H11.8105L11.9476 18.0846C11.968 17.2738 12.2991 16.5009 12.8737 15.9263Z" stroke="#222222" stroke-linecap="round" stroke-linejoin="round"/>
<path d="M22.1162 6.71191L28.775 13.3707" stroke="#222222" stroke-linecap="round" stroke-linejoin="round"/>
</svg>
