<svg width="25" height="25" viewBox="0 0 25 25" fill="none" xmlns="http://www.w3.org/2000/svg">
<path fill-rule="evenodd" clip-rule="evenodd" d="M8.12773 0.5C4.15275 0.5 0.930111 3.72117 0.927734 7.6956V7.7C0.927734 9.20497 1.38947 10.6021 2.17902 11.7574C5.2532 17.5929 12.9277 24.5 12.9277 24.5C12.9277 24.5 20.6024 17.5928 23.6765 11.7573C24.4617 10.6083 24.9226 9.22027 24.9277 7.72484C24.9277 7.71655 24.9277 7.70827 24.9277 7.7C24.9277 7.69526 24.9277 7.69053 24.9277 7.6858C24.92 3.71588 21.6994 0.5 17.7277 0.5C15.8837 0.5 14.2015 1.19324 12.9277 2.33333C11.6539 1.19324 9.97178 0.5 8.12773 0.5Z" fill="#E90051"/>
</svg>
