<svg width="35" height="35" viewBox="0 0 35 35" fill="none" xmlns="http://www.w3.org/2000/svg">
<path fill-rule="evenodd" clip-rule="evenodd" d="M18.5956 4.3262L22.1525 11.4925C22.3289 11.8541 22.6716 12.105 23.0698 12.1647L31.0293 13.3183C31.3516 13.3606 31.6433 13.5312 31.8402 13.7908C32.2106 14.2735 32.1552 14.9618 31.7104 15.3789L25.9441 20.9789C25.6525 21.2516 25.5212 21.657 25.5971 22.0479L26.9868 29.9418C27.0831 30.5981 26.6383 31.2077 25.9864 31.3156C25.7152 31.3579 25.4381 31.3141 25.1946 31.1916L18.0954 27.4714C17.7396 27.2774 17.3108 27.2774 16.9564 27.4714L9.81059 31.2179C9.21414 31.5183 8.4908 31.2922 8.16705 30.7118C8.04309 30.477 7.99789 30.2058 8.04164 29.9418L9.43143 22.0479C9.49851 21.657 9.36872 21.256 9.08434 20.9789L3.27289 15.3775C2.79893 14.905 2.79747 14.1379 3.26997 13.6625C3.27143 13.6625 3.27143 13.661 3.27289 13.6595C3.46684 13.4831 3.70747 13.3635 3.96705 13.3183L11.9266 12.1647C12.3218 12.1006 12.6646 11.8497 12.8439 11.4925L16.4008 4.3262C16.5423 4.03453 16.796 3.81141 17.1037 3.70933C17.4114 3.60578 17.7483 3.62912 18.04 3.77641C18.2791 3.89599 18.4731 4.08849 18.5956 4.3262Z" stroke="#222222" stroke-linecap="round" stroke-linejoin="round"/>
</svg>
